Name1     Lyndon Carlson
Title1     Dist. 45A MN House of Representatives
Phone1     651-296-4255
email1     lyndoncarlson@comcast.net
Website1     rep.lyndon.carlson@house.mn
CityPhone1     651-296-0504
CityWebsite1     www.house.mn
Name2     Jim Adams
Title2     Crystal Candidate for Mayor
Phone2     612-805-5101
email2     jim@reelectjimadams.com
Producer1     Juanita Hoffe
Host1     Juanita Hoffe
Director1     Darren Homme
Graphics1     Cheryl Moline
Audio1     Sharon Kephart
Camera1     Andy Hoffe
Camera2     Scott Burdette
RecordDate0     1/4/2017
ShowName0     Northwest City Politics
ShowTitle0     Test Title
